…
### Subset
Select the 7 needed variables mentioned before.

```r
storm <- select(storm, EVTYPE, FATALITIES, INJURIES, PROPDMG, PROPDMGEXP, CROPDMG, CROPDMGEXP)
```
The new `storm` dataset looks like:

```r
storm
```

```
## # A tibble: 902,297 x 7
##    EVTYPE  FATALITIES INJURIES PROPDMG PROPDMGEXP CROPDMG CROPDMGEXP
##    <chr>        <dbl>    <dbl>   <dbl> <chr>        <dbl> <lgl>     
##  1 TORNADO          0       15    25   K                0 NA        
##  2 TORNADO          0        0     2.5 K                0 NA        
##  3 TORNADO          0        2    25   K                0 NA        
##  4 TORNADO          0        2     2.5 K                0 NA        
##  5 TORNADO          0        2     2.5 K                0 NA        
##  6 TORNADO          0        6     2.5 K                0 NA        
##  7 TORNADO          0        1     2.5 K                0 NA        
##  8 TORNADO          0        0     2.5 K                0 NA        
##  9 TORNADO          1       14    25   K                0 NA        
## 10 TORNADO          0        0    25   K                0 NA        
## # … with 902,287 more rows
```
…
```r
storm <- mutate(storm, EVTYPE = tolower(EVTYPE))
evtype_list <- tolower(evtype_list)
names(storm) <- tolower(names(storm))
```

2. There are many typos in `evtype` and other events causing more than 48 unique events recorded(nearly a thousand).

```r
as_tibble(unique(storm$evtype))
```

```
## # A tibble: 890 x 1
##    value                    
##    <chr>                    
##  1 tornado                  
##  2 tstm wind                
##  3 hail                     
##  4 freezing rain            
##  5 snow                     
##  6 ice storm/flash flood    
##  7 snow/ice                 
##  8 winter storm             
##  9 hurricane opal/high winds
## 10 thunderstorm winds       
## # … with 880 more rows
```
…
